1,,Electronics
3,2,LCD
5,4,100"
6,4,110"
17,4,120"
4,2,Plasma
7,1,Portable Electronics
8,7,Smartphones
9,8,Android
10,7,Tablets
2,1,Televisions
12,11,Cables
13,12,VGA
11,,Accessories
14,12,HDMI
20,12,New Cable
16,11,Speakers
15,11,Lamps